Using Cal-Adapt Data in ArcGIS and R
…
Note: ca_slug() is incompatible with ca_gcm(), ca_scenario(), ca_cvar(), and ca_period().

Fetch Data

To fetch data from Cal-Adapt, feed your API request object into ca_getvals_tbl():

cap_tbl <- ca_getvals_tbl(cap, quiet = TRUE)

cap_tbl

## # A tibble: 756 x 8
##       id cvar   period gcm        scenario spag  dt              val
##    <int> <fct>  <fct>  <fct>      <fct>    <chr> <chr>           [K]
##  1     1 tasmin year   HadGEM2-ES rcp45    none  2006-12-31 283.1241
##  2     1 tasmin year   HadGEM2-ES rcp45    none  2007-12-31 284.2937
##  3     1 tasmin year   HadGEM2-ES rcp45    none  2008-12-31 283.4960
##  4     1 tasmin year   HadGEM2-ES rcp45    none  2009-12-31 283.4539
##  5     1 tasmin year   HadGEM2-ES rcp45    none  2010-12-31 283.7301
##  6     1 tasmin year   HadGEM2-ES rcp45    none  2011-12-31 283.4925
##  7     1 tasmin year   HadGEM2-ES rcp45    none  2012-12-31 284.3309
##  8     1 tasmin year   HadGEM2-ES rcp45    none  2013-12-31 283.8834
##  9     1 tasmin year   HadGEM2-ES rcp45    none  2014-12-31 284.0335
## 10     1 tasmin year   HadGEM2-ES rcp45    none  2015-12-31 283.5372
## # ... with 746 more rows
…
To see where this is we can plot the location:

plot(cap2)

2. Fetch the data

cap2_tbl <- cap2 %>% ca_getvals_tbl(quiet = TRUE)

cap2_tbl

## # A tibble: 400 x 8
##       id cvar   period gcm        scenario spag  dt              val
##    <int> <fct>  <fct>  <fct>      <fct>    <chr> <chr>           [K]
##  1     1 tasmax year   HadGEM2-ES rcp45    none  2030-12-31 298.0159
##  2     1 tasmax year   HadGEM2-ES rcp45    none  2031-12-31 298.0330
##  3     1 tasmax year   HadGEM2-ES rcp45    none  2032-12-31 297.8799
##  4     1 tasmax year   HadGEM2-ES rcp45    none  2033-12-31 297.6568
##  5     1 tasmax year   HadGEM2-ES rcp45    none  2034-12-31 299.8070
##  6     1 tasmax year   HadGEM2-ES rcp45    none  2035-12-31 298.3339
##  7     1 tasmax year   HadGEM2-ES rcp45    none  2036-12-31 299.0968
##  8     1 tasmax year   HadGEM2-ES rcp45    none  2037-12-31 297.7286
##  9     1 tasmax year   HadGEM2-ES rcp45    none  2038-12-31 298.3908
## 10     1 tasmax year   HadGEM2-ES rcp45    none  2039-12-31 299.3733
## # ... with 390 more rows
…
